deconvolution
…
# format gencode table for left join
geneID_split <- str_split(gencode_gtf$gene_id, pattern = "\\.", simplify = TRUE) %>% 
  as_tibble() %>%
  dplyr::select(geneID_split = V1)

gencode_gtf_split <- gencode_gtf %>% 
  bind_cols(geneID_split) %>%
  dplyr::select(gene_id_v22 = gene_id, geneID_split, everything()) %>%
  print()

# A tibble: 60,654 x 7
   gene_id_v22 geneID_split gene_type gene_status gene_name level
   <chr>       <chr>        <chr>     <chr>       <chr>     <dbl>
 1 ENSG000000… ENSG0000000… protein_… KNOWN       TSPAN6        2
 2 ENSG000000… ENSG0000000… protein_… KNOWN       TNMD          2
 3 ENSG000000… ENSG0000000… protein_… KNOWN       DPM1          2
 4 ENSG000000… ENSG0000000… protein_… KNOWN       SCYL3         2
 5 ENSG000000… ENSG0000000… protein_… KNOWN       C1orf112      2
 6 ENSG000000… ENSG0000000… protein_… KNOWN       FGR           2
 7 ENSG000000… ENSG0000000… protein_… KNOWN       CFH           1
 8 ENSG000000… ENSG0000000… protein_… KNOWN       FUCA2         2
 9 ENSG000000… ENSG0000000… protein_… KNOWN       GCLC          1
10 ENSG000000… ENSG0000000… protein_… KNOWN       NFYA          2
# … with 60,644 more rows, and 1 more variable: havana_gene <chr>
…
duke_counts_df <- expr_duke_nodups %>%
  as.data.frame() %>%
  rownames_to_column(var = "gene_symbol") %>%
  as_tibble()

merge_counts_df <- nci_counts_df %>%
  inner_join(duke_counts_df) %>%
  print()

Joining, by = "gene_symbol"

# A tibble: 54,908 x 1,253
   gene_symbol DLBCL11667 DLBCL10501 DLBCL10954 DLBCL10984 DLBCL11206
   <chr>            <dbl>      <dbl>      <dbl>      <dbl>      <dbl>
 1 TSPAN6              51         73        137        121        515
 2 TNMD                 1          0          0          0          1
 3 DPM1              1087       1284       1500       1993       2008
 4 SCYL3              172        118       1613       1355       1114
 5 C1orf112           162        413       1069        837        865
 6 FGR                827        573       2458       3986       2399
 7 CFH                705        904       2204       1677       2039
 8 FUCA2              847        441       3292       1837       2176
 9 GCLC               498        670       3195       2497       2782
10 NFYA               892       1578       2788       2902       2080
# … with 54,898 more rows, and 1,247 more variables: DLBCL10959 <dbl>,
#   DLBCL10985 <dbl>, DLBCL11533 <dbl>, DLBCL11519 <dbl>,
#   DLBCL10921 <dbl>, DLBCL11462 <dbl>, DLBCL10960 <dbl>,
#   DLBCL10943 <dbl>, DLBCL11503 <dbl>, DLBCL11674 <dbl>,
#   DLBCL10969 <dbl>, DLBCL11481 <dbl>, DLBCL10946 <dbl>,
#   DLBCL11538 <dbl>, DLBCL11000 <dbl>, DLBCL10972 <dbl>,
#   DLBCL11537 <dbl>, DLBCL10902 <dbl>, DLBCL10555 <dbl>,
#   DLBCL10918 <dbl>, DLBCL11573 <dbl>, DLBCL11559 <dbl>,
#   DLBCL11590 <dbl>, DLBCL11528 <dbl>, DLBCL10881 <dbl>,
…
