dukedata
…
# gencode v29 was used to generate rownames of expr_duke matrix
# GDC standard is gencode v22, which is source of NCI data
# will convert to gencode v22 to match rows of NCI data
geneID_split <- str_split(gencode_gtf$gene_id, pattern = "\\.", simplify = TRUE) %>% 
  as_tibble() %>%
  dplyr::select(geneID_split = V1)

gencode_gtf_split <- gencode_gtf %>% 
  bind_cols(geneID_split) %>%
  dplyr::select(gene_id_v22 = gene_id, geneID_split, everything()) %>%
  print()

# A tibble: 60,654 x 7
   gene_id_v22 geneID_split gene_type gene_status gene_name level
   <chr>       <chr>        <chr>     <chr>       <chr>     <dbl>
 1 ENSG000000… ENSG0000000… protein_… KNOWN       TSPAN6        2
 2 ENSG000000… ENSG0000000… protein_… KNOWN       TNMD          2
 3 ENSG000000… ENSG0000000… protein_… KNOWN       DPM1          2
 4 ENSG000000… ENSG0000000… protein_… KNOWN       SCYL3         2
 5 ENSG000000… ENSG0000000… protein_… KNOWN       C1orf112      2
 6 ENSG000000… ENSG0000000… protein_… KNOWN       FGR           2
 7 ENSG000000… ENSG0000000… protein_… KNOWN       CFH           1
 8 ENSG000000… ENSG0000000… protein_… KNOWN       FUCA2         2
 9 ENSG000000… ENSG0000000… protein_… KNOWN       GCLC          1
10 ENSG000000… ENSG0000000… protein_… KNOWN       NFYA          2
# … with 60,644 more rows, and 1 more variable: havana_gene <chr>
…
# merge gene name data with expression matrix
expr_duke_df <- expr_duke %>%
  as.data.frame() %>%
  rownames_to_column(var = "gene_id_v29") %>%
  as_tibble() %>%
  mutate(geneID_split = str_replace(gene_id_v29, pattern = "\\.*", "")) %>%
  dplyr::select(gene_id_v29, geneID_split, everything()) %>%
  left_join(gencode_gtf_split) %>%
  dplyr::select(gene_id_v29, gene_id_v22, geneID_split, gene_type, everything()) %>%
  dplyr::select(-gene_status, -gene_name, -level, -havana_gene) %>%
  print()

Joining, by = "geneID_split"

# A tibble: 16,178 x 775
   gene_id_v29 gene_id_v22 geneID_split gene_type duke_648 duke_658
   <chr>       <chr>       <chr>        <chr>        <dbl>    <dbl>
 1 ENSG000000… ENSG000000… ENSG0000000… protein_…    18.0      56.5
 2 ENSG000000… ENSG000000… ENSG0000000… protein_…     3.02      0  
 3 ENSG000000… ENSG000000… ENSG0000000… protein_…   503.      879. 
 4 ENSG000000… ENSG000000… ENSG0000000… protein_…   231.      333. 
 5 ENSG000000… ENSG000000… ENSG0000000… protein_…   654.     1145. 
 6 ENSG000000… ENSG000000… ENSG0000000… protein_…   243.      261. 
 7 ENSG000000… ENSG000000… ENSG0000000… protein_…  1227.     1167. 
 8 ENSG000000… ENSG000000… ENSG0000000… protein_…   175.      361. 
 9 ENSG000000… ENSG000000… ENSG0000000… protein_…   490.     1213. 
10 ENSG000000… ENSG000000… ENSG0000000… protein_…   837.     1392. 
# … with 16,168 more rows, and 769 more variables: duke_683 <dbl>,
#   duke_684 <dbl>, duke_689 <dbl>, duke_690 <dbl>, duke_695 <dbl>,
#   duke_702 <dbl>, duke_704 <dbl>, duke_705 <dbl>, duke_759 <dbl>,
#   duke_787 <dbl>, duke_793 <dbl>, duke_799 <dbl>, duke_800 <dbl>,
#   duke_813 <dbl>, duke_816 <dbl>, duke_823 <dbl>, duke_829 <dbl>,
#   duke_830 <dbl>, duke_831 <dbl>, duke_832 <dbl>, duke_1008 <dbl>,
#   duke_1016 <dbl>, duke_2043 <dbl>, duke_2044 <dbl>, duke_2045 <dbl>,
#   duke_2046 <dbl>, duke_2047 <dbl>, duke_2048 <dbl>, duke_2057 <dbl>,
#   duke_2060 <dbl>, duke_2072 <dbl>, duke_2074 <dbl>, duke_2075 <dbl>,
…
Initial density plots

# Density plots
# tidy data
tidy_cpm <- t(expr_duke_cpm) %>%
  as.data.frame() %>%
  rownames_to_column(var = "sample_id") %>%
  as_tibble() %>%
  gather(key = "gene_id", value = "intensity", -sample_id) %>%
  print()

# A tibble: 10,304,175 x 3
   sample_id gene_id            intensity
   <chr>     <chr>                  <dbl>
 1 duke_648  ENSG00000000003.13      2.36
 2 duke_658  ENSG00000000003.13      4.27
 3 duke_683  ENSG00000000003.13      6.64
 4 duke_684  ENSG00000000003.13      1.33
 5 duke_689  ENSG00000000003.13      9.69
 6 duke_690  ENSG00000000003.13     17.9 
 7 duke_695  ENSG00000000003.13      1.73
 8 duke_704  ENSG00000000003.13      0   
 9 duke_705  ENSG00000000003.13      5.48
10 duke_759  ENSG00000000003.13      2.71
# … with 10,304,165 more rows
…
[1] 12414   665

Post-filtering density plots

# Density plots
# tidy data
tidy_cpm_filtered <- t(expr_duke_cpm_filtered) %>%
  as.data.frame() %>%
  rownames_to_column(var = "sample_id") %>%
  as_tibble() %>%
  gather(key = "gene_id", value = "intensity", -sample_id) %>%
  print()

# A tibble: 8,255,310 x 3
   sample_id gene_id            intensity
   <chr>     <chr>                  <dbl>
 1 duke_648  ENSG00000000003.13      2.36
 2 duke_658  ENSG00000000003.13      4.27
 3 duke_683  ENSG00000000003.13      6.64
 4 duke_684  ENSG00000000003.13      1.33
 5 duke_689  ENSG00000000003.13      9.69
 6 duke_690  ENSG00000000003.13     17.9 
 7 duke_695  ENSG00000000003.13      1.73
 8 duke_704  ENSG00000000003.13      0   
 9 duke_705  ENSG00000000003.13      5.48
10 duke_759  ENSG00000000003.13      2.71
# … with 8,255,300 more rows
…
sample_id_df <- sample_id %>%
  enframe() %>%
  dplyr::select(sample_id = value, -name)
  
pheno_data_joined <- pheno_data_split %>%
  bind_cols(sample_id_df) %>%
  dplyr::select(sample_id, everything()) %>%
  dplyr::select(-group, -norm.factors, -sample_long) %>%
  dplyr::rename(lib_size = lib.size) %>%
  mutate(lib_size = as.integer(lib_size)) %>%
  print()

# A tibble: 771 x 3
   sample_id lib_size lane     
   <chr>        <int> <fct>    
 1 duke_648   7664005 C85CBANXX
 2 duke_658  13270245 C80RHANXX
 3 duke_683   8620210 C80RHANXX
 4 duke_684   5512745 C85CBANXX
 5 duke_689   8874451 C85CBANXX
 6 duke_690   9633770 C85CBANXX
 7 duke_695   8313974 C85CBANXX
 8 duke_702     70058 C85CBANXX
 9 duke_704    399772 C85CBANXX
10 duke_705   4856641 C85CBANXX
# … with 761 more rows
…
