enrichment
…
# just over 96% success rate - acceptable 
# which gene sets have the most missing genes?
missing_genes <- my_gsets_w_id %>% group_by(gs_name) %>% summarise(na_count = sum(is.na(gene_id))) %>% arrange(desc(na_count))
# which gene sets have the highest percentage of missing genes?
totals <- my_gsets_w_id %>% group_by(gs_name) %>% tally() %>% rename(total = n)
gs_table <- totals %>% 
  left_join(missing_genes) %>% 
  mutate(percentage = na_count / total) %>%
  arrange(desc(percentage)) %>%
  print()

Joining, by = "gs_name"

# A tibble: 41 x 4
   gs_name                       total na_count percentage
   <chr>                         <int>    <int>      <dbl>
 1 BIOCARTA_IL17_PATHWAY            18        3     0.167 
 2 BIOCARTA_TCYTOTOXIC_PATHWAY      14        2     0.143 
 3 BIOCARTA_THELPER_PATHWAY         14        2     0.143 
 4 BIOCARTA_CTL_PATHWAY             15        2     0.133 
 5 BIOCARTA_CALCINEURIN_PATHWAY     21        2     0.0952
 6 BIOCARTA_CYTOKINE_PATHWAY        23        2     0.0870
 7 BIOCARTA_IL12_PATHWAY            24        2     0.0833
 8 BIOCARTA_LYM_PATHWAY             12        1     0.0833
 9 BIOCARTA_TCR_PATHWAY             49        4     0.0816
10 BIOCARTA_GRANULOCYTES_PATHWAY    15        1     0.0667
# … with 31 more rows

# based on these findings, I won't remove any gene sets from further consideration
my_gsets_cleaned <- my_gsets_w_id %>%
  drop_na(gene_id)

# make a list of gene id vectors for each gene set
gsets_msig <- my_gsets_cleaned %>%
  dplyr::select(gs_name, gene_id) %>%
  nest(key = "gene_id") %>%
  print()

# A tibble: 41 x 2
   gs_name                      data             
   <chr>                        <list>           
 1 BIOCARTA_41BB_PATHWAY        <tibble [17 × 1]>
 2 BIOCARTA_ASBCELL_PATHWAY     <tibble [12 × 1]>
 3 BIOCARTA_BCR_PATHWAY         <tibble [35 × 1]>
 4 BIOCARTA_BLYMPHOCYTE_PATHWAY <tibble [11 × 1]>
 5 BIOCARTA_CALCINEURIN_PATHWAY <tibble [19 × 1]>
 6 BIOCARTA_CD40_PATHWAY        <tibble [15 × 1]>
 7 BIOCARTA_CDMAC_PATHWAY       <tibble [16 × 1]>
 8 BIOCARTA_COMP_PATHWAY        <tibble [19 × 1]>
 9 BIOCARTA_CTL_PATHWAY         <tibble [13 × 1]>
10 BIOCARTA_CXCR4_PATHWAY       <tibble [24 × 1]>
# … with 31 more rows
…
See spec(...) for full column specifications.

nci_dlbcl_tbl <- nci_dlbcl_es %>%
  as.data.frame() %>%
  rownames_to_column(var = "gene_set") %>%
  as_tibble() %>%
  print()

# A tibble: 49 x 482
   gene_set DLBCL11667 DLBCL10501 DLBCL10954 DLBCL10984 DLBCL11206
   <chr>         <dbl>      <dbl>      <dbl>      <dbl>      <dbl>
 1 uchi_ma…    0.161      -0.118     -0.0523    -0.181     -0.0526
 2 uchi_ma…    0.422      -0.200     -0.561      0.109     -0.377 
 3 uchi_ma…    0.235      -0.155     -0.458      0.135     -0.0619
 4 uchi_ma…    0.206      -0.144     -0.183      0.259      0.0455
 5 uchi_ma…    0.0712     -0.277     -0.289      0.0811    -0.317 
 6 uchi_ma…    0.108       0.126     -0.320     -0.107     -0.0402
 7 uchi_ma…    0.194      -0.240     -0.461      0.193     -0.464 
 8 uchi_t_…    0.0408     -0.236     -0.501      0.419     -0.408 
 9 BIOCART…   -0.00629    -0.158      0.208      0.380      0.179 
10 BIOCART…   -0.452      -0.0169    -0.511      0.403     -0.603 
# … with 39 more rows, and 476 more variables: DLBCL10959 <dbl>,
#   DLBCL10985 <dbl>, DLBCL11533 <dbl>, DLBCL11519 <dbl>,
#   DLBCL10921 <dbl>, DLBCL11462 <dbl>, DLBCL10960 <dbl>,
#   DLBCL10943 <dbl>, DLBCL11503 <dbl>, DLBCL11674 <dbl>,
#   DLBCL10969 <dbl>, DLBCL11481 <dbl>, DLBCL10946 <dbl>,
#   DLBCL11538 <dbl>, DLBCL11000 <dbl>, DLBCL10972 <dbl>,
#   DLBCL11537 <dbl>, DLBCL10902 <dbl>, DLBCL10555 <dbl>,
#   DLBCL10918 <dbl>, DLBCL11573 <dbl>, DLBCL11559 <dbl>,
#   DLBCL11590 <dbl>, DLBCL11528 <dbl>, DLBCL10881 <dbl>,
…
