ext_pheno
…
duke_es <- readRDS("output/duke_expressionset.rds")
nci_es <- readRDS("output/nci_expressionset.rds")

Duke

Read in additional external metadata

Additional Duke clinical data (table S1) downloaded from publication on Cell journal website.

duke_xls <- read_excel("data/mmc1.xlsx", 
                      sheet = "Clinical Information", 
                      skip = 3) %>%
  print()

# A tibble: 1,001 x 35
   `Sample  ID` Gender   IPI `IPI groups` `ECOG IPI` `AnnArbor stage…
          <dbl> <chr>  <dbl> <chr>             <dbl>            <dbl>
 1          648 F          3 Medium                0                1
 2          658 M         NA <NA>                 NA               NA
 3          683 M          3 Medium                1                1
 4          684 F          1 Low                   0                0
 5          689 F          3 Medium                0                1
 6          690 M          0 Low                   0                0
 7          695 F          2 Medium                1                0
 8          702 M          3 Medium                0                1
 9          704 F          1 Low                   0                0
10          705 M          4 High                  1                1
# … with 991 more rows, and 29 more variables: `LDH IPI` <dbl>, `multiple
#   extranodal IPI` <dbl>, `AGE IPI` <dbl>, `B symptoms at
#   diagnosis` <chr>, `Response to initial therapy` <chr>, `Testicular
#   involvement` <chr>, `CNS Involvement` <chr>, `CNS Relapse` <chr>, `age
#   at diagnosis` <dbl>, `Overall Survival years` <dbl>, Censored <dbl>,
#   `log2 MYC expr` <dbl>, `log2 BCL2 expr` <dbl>, `log2 BCL6 expr` <dbl>,
#   `MYC high expr` <dbl>, `BCL2 high expr` <dbl>, `BCL6 high expr` <dbl>,
#   `MYC IHC` <chr>, `BCL2 IHC` <chr>, `BCL6 IHC` <chr>, `BCL2
#   translocation (FISH)` <chr>, `MYC translocation (FISH)` <chr>, `BCL6
#   translocation (FISH)` <chr>, `ABC GCB (RNAseq)` <chr>, `ABC GCB ratio
#   (RNAseq)` <dbl>, `Nanostring ABC GCB` <chr>, `Nanostring LPS` <dbl>,
#   `Hans GCB NonGCB` <chr>, `Genomic Risk Model` <chr>

Reformat sample names to match existing pheno data table

duke_clindata <- duke_xls %>%
  dplyr::rename(sample_id = `Sample  ID`) %>%
  mutate(sample_id = paste0("duke_", sample_id)) %>%
  print()

# A tibble: 1,001 x 35
   sample_id Gender   IPI `IPI groups` `ECOG IPI` `AnnArbor stage…
   <chr>     <chr>  <dbl> <chr>             <dbl>            <dbl>
 1 duke_648  F          3 Medium                0                1
 2 duke_658  M         NA <NA>                 NA               NA
 3 duke_683  M          3 Medium                1                1
 4 duke_684  F          1 Low                   0                0
 5 duke_689  F          3 Medium                0                1
 6 duke_690  M          0 Low                   0                0
 7 duke_695  F          2 Medium                1                0
 8 duke_702  M          3 Medium                0                1
 9 duke_704  F          1 Low                   0                0
10 duke_705  M          4 High                  1                1
# … with 991 more rows, and 29 more variables: `LDH IPI` <dbl>, `multiple
#   extranodal IPI` <dbl>, `AGE IPI` <dbl>, `B symptoms at
#   diagnosis` <chr>, `Response to initial therapy` <chr>, `Testicular
#   involvement` <chr>, `CNS Involvement` <chr>, `CNS Relapse` <chr>, `age
#   at diagnosis` <dbl>, `Overall Survival years` <dbl>, Censored <dbl>,
#   `log2 MYC expr` <dbl>, `log2 BCL2 expr` <dbl>, `log2 BCL6 expr` <dbl>,
#   `MYC high expr` <dbl>, `BCL2 high expr` <dbl>, `BCL6 high expr` <dbl>,
#   `MYC IHC` <chr>, `BCL2 IHC` <chr>, `BCL6 IHC` <chr>, `BCL2
#   translocation (FISH)` <chr>, `MYC translocation (FISH)` <chr>, `BCL6
…
pheno_data <- pheno_d %>%
  as.data.frame() %>%
  rownames_to_column(var = "sample_id") %>%
  as_tibble() %>%
  left_join(duke_clindata) %>%
  print()

Joining, by = "sample_id"

# A tibble: 665 x 37
   sample_id lib_size lane  Gender   IPI `IPI groups` `ECOG IPI`
   <chr>        <int> <fct> <chr>  <dbl> <chr>             <dbl>
 1 duke_648   7664005 C85C… F          3 Medium                0
 2 duke_658  13270245 C80R… M         NA <NA>                 NA
 3 duke_683   8620210 C80R… M          3 Medium                1
 4 duke_684   5512745 C85C… F          1 Low                   0
 5 duke_689   8874451 C85C… F          3 Medium                0
 6 duke_690   9633770 C85C… M          0 Low                   0
 7 duke_695   8313974 C85C… F          2 Medium                1
 8 duke_704    399772 C85C… F          1 Low                   0
 9 duke_705   4856641 C85C… M          4 High                  1
10 duke_759   5364952 C85C… M          2 Medium                0
# … with 655 more rows, and 30 more variables: `AnnArbor stage IPI` <dbl>,
#   `LDH IPI` <dbl>, `multiple extranodal IPI` <dbl>, `AGE IPI` <dbl>, `B
#   symptoms at diagnosis` <chr>, `Response to initial therapy` <chr>,
#   `Testicular involvement` <chr>, `CNS Involvement` <chr>, `CNS
#   Relapse` <chr>, `age at diagnosis` <dbl>, `Overall Survival
#   years` <dbl>, Censored <dbl>, `log2 MYC expr` <dbl>, `log2 BCL2
#   expr` <dbl>, `log2 BCL6 expr` <dbl>, `MYC high expr` <dbl>, `BCL2 high
#   expr` <dbl>, `BCL6 high expr` <dbl>, `MYC IHC` <chr>, `BCL2
#   IHC` <chr>, `BCL6 IHC` <chr>, `BCL2 translocation (FISH)` <chr>, `MYC
…
# write out expressionset with extended pheno data
saveRDS(duke_es, "output/duke_expressionset_pext.rds")

NCI

Read in additional clinical/metadata from Schmitz et al 2018 Supplementary Appendix 2 on NEJM website

nci_xls <- read_excel("data/nejmoa1801445_appendix_2.xlsx", 
    sheet = "Tab S9 Characteristics DLBCL") %>%
  print()

# A tibble: 578 x 20
   `dbGaP subject … `dbGaP accessio… Diagnosis `Gene Expressio…
   <chr>            <chr>            <chr>     <chr>           
 1 DLBCL11202       phs001444        Diffuse … Unclass         
 2 DLBCL10484       phs001444        Diffuse … GCB             
 3 DLBCL10555       phs001444        Diffuse … GCB             
 4 DLBCL10942       phs001444        Diffuse … Unclass         
 5 DLBCL10566       phs001444        Diffuse … Unclass         
 6 DLBCL10549       phs001444        Diffuse … GCB             
 7 DLBCL11191       phs001444        Diffuse … Unclass         
 8 DLBCL11541       phs001444        Diffuse … GCB             
 9 DLBCL11660       phs001444        Diffuse … GCB             
10 DLBCL11503       phs001444        Diffuse … ABC             
# … with 568 more rows, and 16 more variables: `Genetic Subtype` <chr>,
#   `Biopsy Type` <chr>, Treatment__ <chr>, Gender <chr>, Age <dbl>, `Ann
#   Arbor Stage` <dbl>, `LDH Ratio` <dbl>, `ECOG Performance
#   Status` <dbl>, `Number of Extranodal Sites` <dbl>, `IPI Group` <chr>,
#   `IPI Range` <dbl>, `Status at Follow_up_ 0 Alive_ 1 Dead` <dbl>,
#   `Follow_up Time _yrs` <dbl>, `Progression_Free Survival _PFS_ Status_
#   0 No Progressoin_ 1 Progression` <dbl>, `Progression_Free Survival
#   _PFS_ Time _yrs` <dbl>, `Included in Survival Analysis` <chr>

# get name of sample ID column
col1 <- names(nci_xls[1])

# rename for leftjoin
nci_clindata <- nci_xls %>%
  dplyr::rename(sample_id = col1) %>% print()

# A tibble: 578 x 20
   sample_id `dbGaP accessio… Diagnosis `Gene Expressio… `Genetic Subtyp…
   <chr>     <chr>            <chr>     <chr>            <chr>           
 1 DLBCL112… phs001444        Diffuse … Unclass          Other           
 2 DLBCL104… phs001444        Diffuse … GCB              Other           
 3 DLBCL105… phs001444        Diffuse … GCB              EZB             
 4 DLBCL109… phs001444        Diffuse … Unclass          BN2             
 5 DLBCL105… phs001444        Diffuse … Unclass          Other           
 6 DLBCL105… phs001444        Diffuse … GCB              Other           
 7 DLBCL111… phs001444        Diffuse … Unclass          BN2             
 8 DLBCL115… phs001444        Diffuse … GCB              Other           
 9 DLBCL116… phs001444        Diffuse … GCB              BN2             
10 DLBCL115… phs001444        Diffuse … ABC              N1              
# … with 568 more rows, and 15 more variables: `Biopsy Type` <chr>,
#   Treatment__ <chr>, Gender <chr>, Age <dbl>, `Ann Arbor Stage` <dbl>,
#   `LDH Ratio` <dbl>, `ECOG Performance Status` <dbl>, `Number of
#   Extranodal Sites` <dbl>, `IPI Group` <chr>, `IPI Range` <dbl>, `Status
#   at Follow_up_ 0 Alive_ 1 Dead` <dbl>, `Follow_up Time _yrs` <dbl>,
#   `Progression_Free Survival _PFS_ Status_ 0 No Progressoin_ 1
#   Progression` <dbl>, `Progression_Free Survival _PFS_ Time _yrs` <dbl>,
#   `Included in Survival Analysis` <chr>
…
pheno_data <- pheno_d %>%
  as.data.frame() %>%
  rownames_to_column(var = "sample_id") %>%
  as_tibble() %>%
  left_join(nci_clindata) %>%
  print()

Joining, by = "sample_id"

# A tibble: 481 x 40
   sample_id pdl1_status case_id filename project_id days_to_last_fo…
   <chr>     <chr>       <chr>   <chr>    <chr>                 <dbl>
 1 DLBCL116… non-amplif… 3e164d… b384270… NCICCR-DL…              633
 2 DLBCL105… non-amplif… 678acb… ab3f958… NCICCR-DL…              674
 3 DLBCL109… non-amplif… c1b07b… 92fbf68… NCICCR-DL…              425
 4 DLBCL109… low_amplif… 15b380… dc44d3b… NCICCR-DL…               NA
 5 DLBCL112… non-amplif… 7ac79d… 717d067… NCICCR-DL…             2299
 6 DLBCL109… low_amplif… 94d33a… 9765c55… NCICCR-DL…               NA
 7 DLBCL109… non-amplif… fa7ae8… 93f0175… NCICCR-DL…               NA
 8 DLBCL115… non-amplif… 18134e… cd23ffe… NCICCR-DL…             3461
 9 DLBCL115… low_amplif… 3fe9ec… 03cb176… NCICCR-DL…               NA
10 DLBCL109… non-amplif… b31ef3… bd2bf78… NCICCR-DL…               NA
# … with 471 more rows, and 34 more variables: updated_datetime <dttm>,
#   tumor_stage <chr>, age_at_diagnosis <dbl>,
#   tissue_or_organ_of_origin <chr>, ann_arbor_clinical_stage <chr>,
#   progression_or_recurrence <chr>, last_known_disease_status <chr>,
#   primary_diagnosis <chr>, tumor_grade <chr>, demographic.gender <chr>,
#   demographic.submitter_id <chr>, demographic.race <chr>,
#   demographic.ethnicity <chr>, demographic.vital_status <chr>,
#   size <dbl>, `dbGaP accession` <chr>, Diagnosis <chr>, `Gene Expression
#   Subgroup` <chr>, `Genetic Subtype` <chr>, `Biopsy Type` <chr>,
…
