Merge Duke and NCI datasets
…
# plot the before
batch_df <- enframe(batch) %>%
  dplyr::select(lane = value)
edata_df <- as.data.frame(t(edata)) %>%
  rownames_to_column(var = "sample_id") %>%
  as_tibble() %>%
  bind_cols(batch_df) %>%
  dplyr::select(sample_id, lane, everything()) %>%
  gather(key = "gene_id", value = "intensity", -sample_id, -lane) %>%
  group_by(lane) %>%
  print()

# A tibble: 8,255,310 x 4
# Groups:   lane [8]
   sample_id lane      gene_id            intensity
   <chr>     <fct>     <chr>                  <dbl>
 1 duke_648  C85CBANXX ENSG00000000003.13     1.58 
 2 duke_658  C80RHANXX ENSG00000000003.13     2.24 
 3 duke_683  C80RHANXX ENSG00000000003.13     2.76 
 4 duke_684  C85CBANXX ENSG00000000003.13     0.728
 5 duke_689  C85CBANXX ENSG00000000003.13     3.27 
 6 duke_690  C85CBANXX ENSG00000000003.13     4.37 
 7 duke_695  C85CBANXX ENSG00000000003.13     0.873
 8 duke_704  C85CBANXX ENSG00000000003.13    -1    
 9 duke_705  C85CBANXX ENSG00000000003.13     2.71 
10 duke_759  C85CBANXX ENSG00000000003.13     1.64 
# … with 8,255,300 more rows
…
Adjusting the Data

# plot the after
batch_df <- enframe(batch) %>%
  dplyr::select(lane = value)
combat_edata_df <- as.data.frame(t(combat_edata)) %>%
  rownames_to_column(var = "sample_id") %>%
  as_tibble() %>%
  bind_cols(batch_df) %>%
  dplyr::select(sample_id, lane, everything()) %>%
  gather(key = "gene_id", value = "intensity", -sample_id, -lane) %>%
  group_by(lane) %>%
  print()

# A tibble: 8,255,310 x 4
# Groups:   lane [8]
   sample_id lane      gene_id            intensity
   <chr>     <fct>     <chr>                  <dbl>
 1 duke_648  C85CBANXX ENSG00000000003.13     1.62 
 2 duke_658  C80RHANXX ENSG00000000003.13     2.24 
 3 duke_683  C80RHANXX ENSG00000000003.13     2.76 
 4 duke_684  C85CBANXX ENSG00000000003.13     0.769
 5 duke_689  C85CBANXX ENSG00000000003.13     3.31 
 6 duke_690  C85CBANXX ENSG00000000003.13     4.41 
 7 duke_695  C85CBANXX ENSG00000000003.13     0.914
 8 duke_704  C85CBANXX ENSG00000000003.13    -0.959
 9 duke_705  C85CBANXX ENSG00000000003.13     2.76 
10 duke_759  C85CBANXX ENSG00000000003.13     1.68 
# … with 8,255,300 more rows
…
# even more better :-)

Combine expression data

Use Duke expression data that is batch-corrected for lanes

duke_exprs <- combat_edata %>% 
  as.data.frame() %>%
  rownames_to_column(var = "gene_id") %>%
  as_tibble() %>%
  dplyr::select(gene_id, everything()) %>%
  print()

# A tibble: 12,414 x 666
   gene_id duke_648 duke_658 duke_683 duke_684 duke_689 duke_690 duke_695
   <chr>      <dbl>    <dbl>    <dbl>    <dbl>    <dbl>    <dbl>    <dbl>
 1 ENSG00…     1.62     2.24     2.76    0.769     3.31     4.41    0.914
 2 ENSG00…     6.14     6.05     4.10    5.54      4.41     5.56    5.82 
 3 ENSG00…     5.03     4.66     5.43    5.08      5.06     5.75    5.81 
 4 ENSG00…     6.53     6.42     5.89    6.66      5.53     8.18    5.68 
 5 ENSG00…     5.13     4.32     4.99    3.23      3.86     3.86    3.00 
 6 ENSG00…     7.44     6.45     6.62    4.40      5.91     7.28    2.84 
 7 ENSG00…     4.64     4.78     5.06    4.33      4.78     4.65    3.39 
 8 ENSG00…     6.11     6.51     6.50    5.29      5.65     6.47    6.26 
 9 ENSG00…     6.88     6.70     6.65    6.27      6.88     7.23    6.73 
10 ENSG00…     3.59     2.88     2.39    1.58      2.06     4.07    2.35 
# … with 12,404 more rows, and 658 more variables: duke_704 <dbl>,
#   duke_705 <dbl>, duke_759 <dbl>, duke_787 <dbl>, duke_793 <dbl>,
#   duke_799 <dbl>, duke_800 <dbl>, duke_813 <dbl>, duke_816 <dbl>,
#   duke_823 <dbl>, duke_829 <dbl>, duke_830 <dbl>, duke_831 <dbl>,
#   duke_1008 <dbl>, duke_1016 <dbl>, duke_2043 <dbl>, duke_2044 <dbl>,
#   duke_2045 <dbl>, duke_2046 <dbl>, duke_2047 <dbl>, duke_2048 <dbl>,
#   duke_2057 <dbl>, duke_2060 <dbl>, duke_2072 <dbl>, duke_2074 <dbl>,
#   duke_2075 <dbl>, duke_2076 <dbl>, duke_2079 <dbl>, duke_2080 <dbl>,
#   duke_2081 <dbl>, duke_2084 <dbl>, duke_2085 <dbl>, duke_2087 <dbl>,
…
nci_exprs <- exprs(nci_es) %>% 
  as.data.frame() %>%
  rownames_to_column(var = "gene_id") %>%
  as_tibble() %>%
  dplyr::select(gene_id, everything()) %>%
  print()

# A tibble: 12,858 x 482
   gene_id DLBCL11667 DLBCL10501 DLBCL10954 DLBCL10984 DLBCL11206
   <chr>        <dbl>      <dbl>      <dbl>      <dbl>      <dbl>
 1 ENSG00…       1.02       2.20       1.69       1.71       3.77
 2 ENSG00…       5.05       6.17       4.92       5.53       5.69
 3 ENSG00…       2.50       2.83       5.02       4.98       4.85
 4 ENSG00…       2.42       4.56       4.44       4.30       4.50
 5 ENSG00…       4.66       5.02       5.62       6.52       5.95
 6 ENSG00…       4.43       5.67       5.47       5.28       5.71
 7 ENSG00…       4.69       4.65       6.04       5.41       5.81
 8 ENSG00…       3.95       5.25       6.00       5.85       6.16
 9 ENSG00…       4.77       6.47       5.80       6.06       5.74
10 ENSG00…       2.40       3.42       4.14       3.40       3.96
# … with 12,848 more rows, and 476 more variables: DLBCL10959 <dbl>,
#   DLBCL10985 <dbl>, DLBCL11533 <dbl>, DLBCL11519 <dbl>,
#   DLBCL10921 <dbl>, DLBCL11462 <dbl>, DLBCL10960 <dbl>,
#   DLBCL10943 <dbl>, DLBCL11503 <dbl>, DLBCL11674 <dbl>,
#   DLBCL10969 <dbl>, DLBCL11481 <dbl>, DLBCL10946 <dbl>,
#   DLBCL11538 <dbl>, DLBCL11000 <dbl>, DLBCL10972 <dbl>,
#   DLBCL11537 <dbl>, DLBCL10902 <dbl>, DLBCL10555 <dbl>,
#   DLBCL10918 <dbl>, DLBCL11573 <dbl>, DLBCL11559 <dbl>,
#   DLBCL11590 <dbl>, DLBCL11528 <dbl>, DLBCL10881 <dbl>,
…
ann_arbor_clinical_stage = AnnArbor stage IPI - NCI dataset to be converted to numeric and then converted to indicator for stage 3/4 per IPI

ECOG Performance Status = ECOG IPI - NCI dataset to be converted to indicator for ECOG 2+ vs ECOG 0-1 per IPI

Number of Extranodal Sites = multiple extranodal IPI - NCI dataset to be converted to indicator for >1 extranodal sites

LDH Ratio = LDH IPI - NCI dataset to be converted to indicator for raio >1 per IPI

# pull out pheno_data
nci_pheno <- pData(nci_es) %>%
  rownames_to_column(var = "sample_id") %>%
  as_tibble() %>%
  print()

# A tibble: 481 x 40
   sample_id pdl1_status case_id filename project_id days_to_last_fo…
   <chr>     <chr>       <chr>   <chr>    <chr>                 <dbl>
 1 DLBCL116… non-amplif… 3e164d… b384270… NCICCR-DL…              633
 2 DLBCL105… non-amplif… 678acb… ab3f958… NCICCR-DL…              674
 3 DLBCL109… non-amplif… c1b07b… 92fbf68… NCICCR-DL…              425
 4 DLBCL109… low_amplif… 15b380… dc44d3b… NCICCR-DL…               NA
 5 DLBCL112… non-amplif… 7ac79d… 717d067… NCICCR-DL…             2299
 6 DLBCL109… low_amplif… 94d33a… 9765c55… NCICCR-DL…               NA
 7 DLBCL109… non-amplif… fa7ae8… 93f0175… NCICCR-DL…               NA
 8 DLBCL115… non-amplif… 18134e… cd23ffe… NCICCR-DL…             3461
 9 DLBCL115… low_amplif… 3fe9ec… 03cb176… NCICCR-DL…               NA
10 DLBCL109… non-amplif… b31ef3… bd2bf78… NCICCR-DL…               NA
# … with 471 more rows, and 34 more variables: updated_datetime <dttm>,
#   tumor_stage <chr>, age_at_diagnosis <dbl>,
#   tissue_or_organ_of_origin <chr>, ann_arbor_clinical_stage <chr>,
#   progression_or_recurrence <chr>, last_known_disease_status <chr>,
#   primary_diagnosis <chr>, tumor_grade <chr>, demographic.gender <chr>,
#   demographic.submitter_id <chr>, demographic.race <chr>,
#   demographic.ethnicity <chr>, demographic.vital_status <chr>,
#   size <dbl>, `dbGaP accession` <chr>, Diagnosis <chr>, `Gene Expression
#   Subgroup` <chr>, `Genetic Subtype` <chr>, `Biopsy Type` <chr>,
#   Treatment__ <chr>, Gender <chr>, Age <dbl>, `Ann Arbor Stage` <dbl>,
#   `LDH Ratio` <dbl>, `ECOG Performance Status` <dbl>, `Number of
#   Extranodal Sites` <dbl>, `IPI Group` <chr>, `IPI Range` <dbl>, `Status
#   at Follow_up_ 0 Alive_ 1 Dead` <dbl>, `Follow_up Time _yrs` <dbl>,
#   `Progression_Free Survival _PFS_ Status_ 0 No Progressoin_ 1
#   Progression` <dbl>, `Progression_Free Survival _PFS_ Time _yrs` <dbl>,
#   `Included in Survival Analysis` <chr>

duke_pheno <- pData(duke_es) %>%
  rownames_to_column(var = "sample_id") %>%
  as_tibble() %>%
  print()

# A tibble: 665 x 37
   sample_id lib_size lane  Gender   IPI `IPI groups` `ECOG IPI`
   <chr>        <int> <fct> <chr>  <dbl> <chr>             <dbl>
 1 duke_648   7664005 C85C… F          3 Medium                0
 2 duke_658  13270245 C80R… M         NA <NA>                 NA
 3 duke_683   8620210 C80R… M          3 Medium                1
 4 duke_684   5512745 C85C… F          1 Low                   0
 5 duke_689   8874451 C85C… F          3 Medium                0
 6 duke_690   9633770 C85C… M          0 Low                   0
 7 duke_695   8313974 C85C… F          2 Medium                1
 8 duke_704    399772 C85C… F          1 Low                   0
 9 duke_705   4856641 C85C… M          4 High                  1
10 duke_759   5364952 C85C… M          2 Medium                0
# … with 655 more rows, and 30 more variables: `AnnArbor stage IPI` <dbl>,
#   `LDH IPI` <dbl>, `multiple extranodal IPI` <dbl>, `AGE IPI` <dbl>, `B
#   symptoms at diagnosis` <chr>, `Response to initial therapy` <chr>,
#   `Testicular involvement` <chr>, `CNS Involvement` <chr>, `CNS
#   Relapse` <chr>, `age at diagnosis` <dbl>, `Overall Survival
#   years` <dbl>, Censored <dbl>, `log2 MYC expr` <dbl>, `log2 BCL2
#   expr` <dbl>, `log2 BCL6 expr` <dbl>, `MYC high expr` <dbl>, `BCL2 high
#   expr` <dbl>, `BCL6 high expr` <dbl>, `MYC IHC` <chr>, `BCL2
#   IHC` <chr>, `BCL6 IHC` <chr>, `BCL2 translocation (FISH)` <chr>, `MYC
…
Format NCI data for merge

ipi_highlow <- nci_pheno$`IPI Range` %>%
  str_split_fixed(pattern = "", n = 2) %>%
  as_tibble() %>%
  dplyr::rename(ipi_low = V1) %>%
  mutate(ipi_high = ifelse(V2 == "", ipi_low, V2)) %>%
  dplyr::select(-V2) %>%
  print()

Warning: `as_tibble.matrix()` requires a matrix with column names or a `.name_repair` argument. Using compatibility `.name_repair`.
This warning is displayed once per session.

# A tibble: 481 x 2
   ipi_low ipi_high
   <chr>   <chr>   
 1 1       1       
 2 1       1       
 3 1       3       
 4 1       2       
 5 2       2       
 6 2       2       
 7 3       4       
 8 3       3       
 9 2       3       
10 2       2       
# … with 471 more rows

nci_pheno_ipi <- nci_pheno %>% 
  bind_cols(ipi_highlow) %>%
  dplyr::select(sample_id, ipi_initial = ipi_low, ipi_high, everything()) %>%
  print()

# A tibble: 481 x 42
   sample_id ipi_initial ipi_high pdl1_status case_id filename project_id
   <chr>     <chr>       <chr>    <chr>       <chr>   <chr>    <chr>     
 1 DLBCL116… 1           1        non-amplif… 3e164d… b384270… NCICCR-DL…
 2 DLBCL105… 1           1        non-amplif… 678acb… ab3f958… NCICCR-DL…
 3 DLBCL109… 1           3        non-amplif… c1b07b… 92fbf68… NCICCR-DL…
 4 DLBCL109… 1           2        low_amplif… 15b380… dc44d3b… NCICCR-DL…
 5 DLBCL112… 2           2        non-amplif… 7ac79d… 717d067… NCICCR-DL…
 6 DLBCL109… 2           2        low_amplif… 94d33a… 9765c55… NCICCR-DL…
 7 DLBCL109… 3           4        non-amplif… fa7ae8… 93f0175… NCICCR-DL…
 8 DLBCL115… 3           3        non-amplif… 18134e… cd23ffe… NCICCR-DL…
 9 DLBCL115… 2           3        low_amplif… 3fe9ec… 03cb176… NCICCR-DL…
10 DLBCL109… 2           2        non-amplif… b31ef3… bd2bf78… NCICCR-DL…
# … with 471 more rows, and 35 more variables:
#   days_to_last_follow_up <dbl>, updated_datetime <dttm>,
#   tumor_stage <chr>, age_at_diagnosis <dbl>,
#   tissue_or_organ_of_origin <chr>, ann_arbor_clinical_stage <chr>,
#   progression_or_recurrence <chr>, last_known_disease_status <chr>,
#   primary_diagnosis <chr>, tumor_grade <chr>, demographic.gender <chr>,
#   demographic.submitter_id <chr>, demographic.race <chr>,
#   demographic.ethnicity <chr>, demographic.vital_status <chr>,
#   size <dbl>, `dbGaP accession` <chr>, Diagnosis <chr>, `Gene Expression
…
  mutate(ps_2plus = as.numeric(`ECOG Performance Status`)) %>%
  mutate(ps_2plus = ifelse(ps_2plus > 1, 1, 0),
         ps_2plus = as.factor(ps_2plus)) %>%
  dplyr::select(sample_id, ps_2plus, everything()) %>%
  mutate(extranodal_sites_2plus = as.numeric(`Number of Extranodal Sites`)) %>%
  mutate(extranodal_sites_2plus = ifelse(extranodal_sites_2plus > 1, 1, 0)) %>%
  dplyr::select(sample_id, extranodal_sites_2plus, everything()) %>%
  mutate(extranodal_sites_2plus = as.factor(extranodal_sites_2plus)) %>%
  mutate(ldh_abnormal = ifelse(`LDH Ratio` > 1, 1, 0),
         ldh_abnormal = as.factor(ldh_abnormal),
         ipi_initial = as.factor(ipi_initial)) %>%
  dplyr::select(sample_id, ldh_abnormal, everything()) %>%
  print()

# A tibble: 481 x 46
   sample_id ldh_abnormal extranodal_site… ps_2plus ann_arbor_stage…
   <chr>     <fct>        <fct>            <fct>    <fct>           
 1 DLBCL116… 0            0                0        1               
 2 DLBCL105… 0            0                1        0               
 3 DLBCL109… 1            <NA>             <NA>     0               
 4 DLBCL109… <NA>         0                0        0               
 5 DLBCL112… 0            0                1        0               
 6 DLBCL109… <NA>         0                <NA>     0               
 7 DLBCL109… 1            <NA>             1        1               
 8 DLBCL115… 1            0                1        1               
 9 DLBCL115… <NA>         0                1        1               
10 DLBCL109… 1            0                1        0               
# … with 471 more rows, and 41 more variables: abc_gcb_rna <chr>,
#   ipi_group <chr>, os_status <dbl>, os_years <dbl>, gender <chr>,
#   age <dbl>, ipi_initial <fct>, ipi_high <chr>, pdl1_status <chr>,
#   case_id <chr>, filename <chr>, project_id <chr>,
#   days_to_last_follow_up <dbl>, updated_datetime <dttm>,
#   tumor_stage <chr>, age_at_diagnosis <dbl>,
#   tissue_or_organ_of_origin <chr>, ann_arbor_clinical_stage <chr>,
#   progression_or_recurrence <chr>, last_known_disease_status <chr>,
#   primary_diagnosis <chr>, tumor_grade <chr>, demographic.gender <chr>,
…
  dplyr::select(sample_id, age, abc_gcb_rna, ipi_group, os_status, os_years, gender, everything()) %>%
  dplyr::rename(ann_arbor_stage_3plus = `AnnArbor stage IPI`,
                ps_2plus = `ECOG IPI`,
                extranodal_sites_2plus = `multiple extranodal IPI`,
                ldh_abnormal = `LDH IPI`,
                ipi_initial = IPI) %>%
  mutate(ps_2plus = as.factor(ps_2plus),
         ann_arbor_stage_3plus = as.factor(ann_arbor_stage_3plus),
         extranodal_sites_2plus = as.factor(extranodal_sites_2plus),
         ldh_abnormal = as.factor(ldh_abnormal),
         ipi_initial = as.factor(ipi_initial)) %>%
  mutate(age = as.numeric(age)) %>%
  print()

# A tibble: 665 x 38
   sample_id   age abc_gcb_rna ipi_group os_status os_years gender lib_size
   <chr>     <dbl> <chr>       <chr>         <dbl>    <dbl> <chr>     <int>
 1 duke_648     31 Unclassifi… Medium            1     0.59 F       7664005
 2 duke_658     50 GCB         <NA>             NA    NA    M      13270245
 3 duke_683     55 ABC         Medium            1     2.62 M       8620210
 4 duke_684     53 GCB         Low               1     1.87 F       5512745
 5 duke_689     15 ABC         Medium            1     2.29 F       8874451
 6 duke_690     51 Unclassifi… Low               1     2.83 M       9633770
 7 duke_695     54 GCB         Medium           NA    NA    F       8313974
 8 duke_704     79 ABC         Low               1     4.1  F        399772
 9 duke_705     89 GCB         High              0    NA    M       4856641
10 duke_759     57 ABC         Medium            0     6.55 M       5364952
# … with 655 more rows, and 30 more variables: lane <fct>,
#   ipi_initial <fct>, ps_2plus <fct>, ann_arbor_stage_3plus <fct>,
#   ldh_abnormal <fct>, extranodal_sites_2plus <fct>, `AGE IPI` <dbl>, `B
#   symptoms at diagnosis` <chr>, `Response to initial therapy` <chr>,
#   `Testicular involvement` <chr>, `CNS Involvement` <chr>, `CNS
#   Relapse` <chr>, `age at diagnosis` <dbl>, `log2 MYC expr` <dbl>, `log2
#   BCL2 expr` <dbl>, `log2 BCL6 expr` <dbl>, `MYC high expr` <dbl>, `BCL2
#   high expr` <dbl>, `BCL6 high expr` <dbl>, `MYC IHC` <chr>, `BCL2
#   IHC` <chr>, `BCL6 IHC` <chr>, `BCL2 translocation (FISH)` <chr>, `MYC
…
# create marker variable for Duke vs NCI in pheno data
pheno_df <- pData(combined_es) %>%
  rownames_to_column(var = "sample_id") %>%
  as_tibble() %>%
  mutate(source = ifelse(grepl("duke_", sample_id),"duke","nci")) %>%
  mutate(source = as.factor(source)) %>%
  dplyr::select(sample_id, source, everything()) %>%
  # also fix gcb_abc column factors
  mutate(abc_gcb_rna = as.character(abc_gcb_rna)) %>%
  mutate(abc_gcb_rna = ifelse(abc_gcb_rna == "Unclass", "Unclassified", abc_gcb_rna)) %>%
  mutate(abc_gcb_rna = as.factor(abc_gcb_rna)) %>%
  print()

# A tibble: 1,146 x 73
   sample_id source abc_gcb_rna ipi_group os_status os_years   age gender
   <chr>     <fct>  <fct>       <chr>         <dbl>    <dbl> <dbl> <chr> 
 1 DLBCL116… nci    GCB         Low               1     1.73    48 F     
 2 DLBCL105… nci    GCB         Low               0     1.85    42 M     
 3 DLBCL109… nci    ABC         <NA>              1     1.16    47 M     
 4 DLBCL109… nci    ABC         <NA>              0     0       75 F     
 5 DLBCL112… nci    Unclassifi… Intermed…         1     6.30    76 M     
 6 DLBCL109… nci    ABC         <NA>              0     0       41 M     
 7 DLBCL109… nci    ABC         <NA>              0     0       54 M     
 8 DLBCL115… nci    GCB         Intermed…         0     9.48    57 F     
 9 DLBCL115… nci    GCB         Intermed…         0     0       32 M     
10 DLBCL109… nci    ABC         Intermed…         0     0       56 M     
# … with 1,136 more rows, and 65 more variables: ipi_initial <fct>,
#   pdl1_status <chr>, ldh_abnormal <fct>, extranodal_sites_2plus <fct>,
#   ps_2plus <fct>, ann_arbor_stage_3plus <chr>, ipi_high <chr>,
#   case_id <chr>, filename <chr>, project_id <chr>,
#   days_to_last_follow_up <dbl>, updated_datetime <dttm>,
#   tumor_stage <chr>, age_at_diagnosis <dbl>,
#   tissue_or_organ_of_origin <chr>, ann_arbor_clinical_stage <chr>,
#   progression_or_recurrence <chr>, last_known_disease_status <chr>,
#   primary_diagnosis <chr>, tumor_grade <chr>, demographic.gender <chr>,
…
# boxplot by data source
# plot the before
batch_df <- enframe(batch) %>%
  dplyr::select(source = value)
edata_df <- as.data.frame(t(exprs(combined_es))) %>%
  rownames_to_column(var = "sample_id") %>%
  as_tibble() %>%
  bind_cols(batch_df) %>%
  dplyr::select(sample_id, source, everything()) %>%
  gather(key = "gene_id", value = "intensity", -sample_id, -source) %>%
  group_by(source) %>%
  print()

# A tibble: 13,280,994 x 4
# Groups:   source [2]
   sample_id  source gene_id            intensity
   <chr>      <fct>  <chr>                  <dbl>
 1 DLBCL11667 nci    ENSG00000000003.13     1.02 
 2 DLBCL10501 nci    ENSG00000000003.13     2.20 
 3 DLBCL10954 nci    ENSG00000000003.13     1.69 
 4 DLBCL10984 nci    ENSG00000000003.13     1.71 
 5 DLBCL11206 nci    ENSG00000000003.13     3.77 
 6 DLBCL10959 nci    ENSG00000000003.13     1.06 
 7 DLBCL10985 nci    ENSG00000000003.13     0.411
 8 DLBCL11533 nci    ENSG00000000003.13     2.57 
 9 DLBCL11519 nci    ENSG00000000003.13     1.41 
10 DLBCL10921 nci    ENSG00000000003.13     2.47 
# … with 13,280,984 more rows
…
