Expanded search for immune gene sets
…
Warning: 10327 parsing failures.
  row col  expected    actual                                                        file
 5304  -- 6 columns 5 columns 'data/gencode.v22.primary_assembly.annotation.gtf.geneinfo'
12445  -- 6 columns 5 columns 'data/gencode.v22.primary_assembly.annotation.gtf.geneinfo'
12913  -- 6 columns 5 columns 'data/gencode.v22.primary_assembly.annotation.gtf.geneinfo'
13082  -- 6 columns 5 columns 'data/gencode.v22.primary_assembly.annotation.gtf.geneinfo'
13310  -- 6 columns 5 columns 'data/gencode.v22.primary_assembly.annotation.gtf.geneinfo'
..... ... ......... ......... ...........................................................
See problems(...) for more details.

gencode_gtf

# A tibble: 60,654 x 6
   gene_id        gene_type    gene_status gene_name level havana_gene     
   <chr>          <chr>        <chr>       <chr>     <dbl> <chr>           
 1 ENSG000000000… protein_cod… KNOWN       TSPAN6        2 OTTHUMG00000022…
 2 ENSG000000000… protein_cod… KNOWN       TNMD          2 OTTHUMG00000022…
 3 ENSG000000004… protein_cod… KNOWN       DPM1          2 OTTHUMG00000032…
 4 ENSG000000004… protein_cod… KNOWN       SCYL3         2 OTTHUMG00000035…
 5 ENSG000000004… protein_cod… KNOWN       C1orf112      2 OTTHUMG00000035…
 6 ENSG000000009… protein_cod… KNOWN       FGR           2 OTTHUMG00000003…
 7 ENSG000000009… protein_cod… KNOWN       CFH           1 OTTHUMG00000035…
 8 ENSG000000010… protein_cod… KNOWN       FUCA2         2 OTTHUMG00000015…
 9 ENSG000000010… protein_cod… KNOWN       GCLC          1 OTTHUMG00000160…
10 ENSG000000011… protein_cod… KNOWN       NFYA          2 OTTHUMG00000014…
# … with 60,644 more rows
…
Joining, by = "gene_name"

[1] "ENSG00000145649.7" "ENSG00000180644.6"

DHIT (Double hit-like) gene set

# read in excel table
ds_JCO_18_01583_2 <- read_excel("data/ds_JCO.18.01583-2.xlsx", 
                                sheet = "Table S9", 
                                skip = 1)
ds_JCO_18_01583_2

# A tibble: 104 x 2
   `Gene name` `DHITsig Importance Score`
   <chr>                            <dbl>
 1 OR13A1                           0.674
 2 FAM216A                          0.666
 3 MYC                              0.618
 4 SLC25A27                         0.597
 5 ALOX5                            0.582
 6 UQCRH                            0.555
 7 SUGCT                            0.545
 8 SNHG7                            0.533
 9 TNFSF8                           0.487
10 LINC00957                        0.477
# … with 94 more rows
…
# convert to named list of gene sets, each a 1-column tibble
sig_list <- as_tibble(sig) %>%
  nest(key = gene) %>%
  as.list() %>%
  print()

$cell
 [1] B cells       Proliferation Interferon    Macrophages   Monocytes    
 [6] Neutrophils   NK cells      Plasma cells  Translation   T cells      
10 Levels: B cells Interferon Macrophages Monocytes ... Translation

$data
$data[[1]]
# A tibble: 37 x 1
   gene   
   <fct>  
 1 BANK1  
 2 HLA-DOB
 3 CD72   
 4 TLR10  
 5 CD19   
 6 TCL1A  
 7 MS4A1  
 8 STAP1  
 9 BTLA   
10 CR2    
# … with 27 more rows

$data[[2]]
# A tibble: 99 x 1
   gene    
   <fct>   
 1 GINS2   
 2 UHRF1   
 3 ZWILCH  
 4 FANCI   
 5 RAD51AP1
 6 SMC2    
 7 GINS1   
 8 NCAPG2  
 9 RAD51   
10 NDC80   
# … with 89 more rows

$data[[3]]
# A tibble: 66 x 1
   gene  
   <fct> 
 1 STAT2 
 2 GBP4  
 3 IRF7  
 4 IFI44L
 5 ISG15 
 6 SP110 
 7 IFI44 
 8 XAF1  
 9 STAT1 
10 DTX3L 
# … with 56 more rows

$data[[4]]
# A tibble: 78 x 1
   gene    
   <fct>   
 1 CECR1   
 2 CTSB    
 3 HLA-DRB6
 4 FCGR2A  
 5 TNFSF13B
 6 SLAMF8  
 7 IFI30   
 8 CCR1    
 9 CD163   
10 ITGB2   
# … with 68 more rows

$data[[5]]
# A tibble: 37 x 1
   gene    
   <fct>   
 1 PILRA   
 2 PSAP    
 3 LILRB2  
 4 HCK     
 5 THEMIS2 
 6 EMILIN2 
 7 LILRB3  
 8 FCN1    
 9 KIAA0930
10 TPP1    
# … with 27 more rows

$data[[6]]
# A tibble: 47 x 1
   gene    
   <fct>   
 1 THBD    
 2 FPR1    
 3 BCL6    
 4 TLR2    
 5 TNFRSF1A
 6 RNF149  
 7 PLXNC1  
 8 CFLAR   
 9 PREX1   
10 DYSF    
# … with 37 more rows
…
$data[[9]]
# A tibble: 86 x 1
   gene  
   <fct> 
 1 RPS3A 
 2 FAU   
 3 RPS23 
 4 RPL18A
 5 EIF3F 
 6 RPL24 
 7 RPS15A
 8 SNHG8 
 9 RPL11 
10 RPL15 
# … with 76 more rows

$data[[10]]
# A tibble: 85 x 1
   gene    
   <fct>   
 1 GIMAP4  
 2 CD2     
 3 ARHGAP9 
 4 IL23A   
 5 CD48    
 6 RASSF5  
 7 CD52    
 8 ARHGAP25
 9 TBC1D10C
10 NLRC3   
# … with 75 more rows
…
sig_dfs

$`B cells`
# A tibble: 37 x 1
   gene   
   <fct>  
 1 BANK1  
 2 HLA-DOB
 3 CD72   
 4 TLR10  
 5 CD19   
 6 TCL1A  
 7 MS4A1  
 8 STAP1  
 9 BTLA   
10 CR2    
# … with 27 more rows

$Proliferation
# A tibble: 99 x 1
   gene    
   <fct>   
 1 GINS2   
 2 UHRF1   
 3 ZWILCH  
 4 FANCI   
 5 RAD51AP1
 6 SMC2    
 7 GINS1   
 8 NCAPG2  
 9 RAD51   
10 NDC80   
# … with 89 more rows

$Interferon
# A tibble: 66 x 1
   gene  
   <fct> 
 1 STAT2 
 2 GBP4  
 3 IRF7  
 4 IFI44L
 5 ISG15 
 6 SP110 
 7 IFI44 
 8 XAF1  
 9 STAT1 
10 DTX3L 
# … with 56 more rows

$Macrophages
# A tibble: 78 x 1
   gene    
   <fct>   
 1 CECR1   
 2 CTSB    
 3 HLA-DRB6
 4 FCGR2A  
 5 TNFSF13B
 6 SLAMF8  
 7 IFI30   
 8 CCR1    
 9 CD163   
10 ITGB2   
# … with 68 more rows

$Monocytes
# A tibble: 37 x 1
   gene    
   <fct>   
 1 PILRA   
 2 PSAP    
 3 LILRB2  
 4 HCK     
 5 THEMIS2 
 6 EMILIN2 
 7 LILRB3  
 8 FCN1    
 9 KIAA0930
10 TPP1    
# … with 27 more rows

$Neutrophils
# A tibble: 47 x 1
   gene    
   <fct>   
 1 THBD    
 2 FPR1    
 3 BCL6    
 4 TLR2    
 5 TNFRSF1A
 6 RNF149  
 7 PLXNC1  
 8 CFLAR   
 9 PREX1   
10 DYSF    
# … with 37 more rows
…
$Translation
# A tibble: 86 x 1
   gene  
   <fct> 
 1 RPS3A 
 2 FAU   
 3 RPS23 
 4 RPL18A
 5 EIF3F 
 6 RPL24 
 7 RPS15A
 8 SNHG8 
 9 RPL11 
10 RPL15 
# … with 76 more rows

$`T cells`
# A tibble: 85 x 1
   gene    
   <fct>   
 1 GIMAP4  
 2 CD2     
 3 ARHGAP9 
 4 IL23A   
 5 CD48    
 6 RASSF5  
 7 CD52    
 8 ARHGAP25
 9 TBC1D10C
10 NLRC3   
# … with 75 more rows
…
[1] "beijing_cd8_c1_lef1_gs"    "beijing_cd8_c2_cd28_gs"   
[3] "beijing_cd8_c3_cx3cr1_gs"  "beijing_cd8_c4_gzmk_gs"   
[5] "beijing_cd8_c5_znf683_gs"  "beijing_cd8_c6_layn_gs"   
[7] "beijing_cd8_c7_slc4a10_gs"

names(beijing_cd8list) <- names
beijing_cd8list

$beijing_cd8_c1_lef1_gs
# A tibble: 305 x 1
   gene_name
   <chr>    
 1 CCR7     
 2 SELL     
 3 LEF1     
 4 TCF7     
 5 RPL13    
 6 RPS6     
 7 TXK      
 8 RPL4     
 9 LDHB     
10 NOSIP    
# … with 295 more rows

$beijing_cd8_c2_cd28_gs
# A tibble: 22 x 1
   gene_name
   <chr>    
 1 IL7R     
 2 CD28     
 3 LYAR     
 4 TNFSF8   
 5 MCUB     
 6 GPR183   
 7 DUSP2    
 8 SESN1    
 9 MALAT1   
10 EPB41    
# … with 12 more rows

$beijing_cd8_c3_cx3cr1_gs
# A tibble: 102 x 1
   gene_name
   <chr>    
 1 FGFBP2   
 2 CX3CR1   
 3 FCGR3A   
 4 ADGRG1   
 5 PLEK     
 6 FCGR3B   
 7 KLRD1    
 8 S1PR1    
 9 LITAF    
10 GZMH     
# … with 92 more rows

$beijing_cd8_c4_gzmk_gs
# A tibble: 28 x 1
   gene_name
   <chr>    
 1 GZMK     
 2 CCL4L1   
 3 ITM2C    
 4 CD74     
 5 CCL4     
 6 AOAH     
 7 CXCR4    
 8 DTHD1    
 9 CCL3L3   
10 CCL3L1   
# … with 18 more rows

$beijing_cd8_c5_znf683_gs
# A tibble: 35 x 1
   gene_name 
   <chr>     
 1 ZNF683    
 2 CAPG      
 3 ITGA1     
 4 STK17B    
 5 JUN       
 6 ADAM19    
 7 CKLF-CMTM1
 8 CKLF      
 9 CXCR3     
10 XCL1      
# … with 25 more rows

$beijing_cd8_c6_layn_gs
# A tibble: 399 x 1
   gene_name
   <chr>    
 1 HAVCR2   
 2 SIRPG    
 3 GAPDH    
 4 ITGAE    
 5 GZMB     
 6 CCL3     
 7 TIGIT    
 8 ENTPD1   
 9 PDCD1    
10 RBPJ     
# … with 389 more rows

$beijing_cd8_c7_slc4a10_gs
# A tibble: 109 x 1
   gene_name
   <chr>    
 1 KLRB1    
 2 SLC4A10  
 3 NCR3     
 4 LST1     
 5 LTB      
 6 CCR6     
 7 DPP4     
 8 SPOCK2   
 9 SLAMF1   
10 JAML     
# … with 99 more rows
…
[1] "beijing_cd4_c1_ccr7_gs"   "beijing_cd4_c2_anxa1_gs" 
[3] "beijing_cd4_c3_gnly_gs"   "beijing_cd4_c4_cd69_gs"  
[5] "beijing_cd4_c5_eomes_gs"  "beijing_cd4_c6_gzma_gs"  
[7] "beijing_cd4_c7_cxcl13_gs"

names(beijing_cd4convlist) <- names
beijing_cd4convlist

$beijing_cd4_c1_ccr7_gs
# A tibble: 188 x 1
   gene_name
   <chr>    
 1 CCR7     
 2 RPS6     
 3 SELL     
 4 RPL3     
 5 RPL13    
 6 EEF1G    
 7 TXK      
 8 RPL32    
 9 RPL5     
10 RPS14    
# … with 178 more rows

$beijing_cd4_c2_anxa1_gs
# A tibble: 70 x 1
   gene_name
   <chr>    
 1 LTB      
 2 KLF2     
 3 AES      
 4 BIRC3    
 5 GPR183   
 6 RPLP0    
 7 GIMAP7   
 8 RPSAP58  
 9 GSTK1    
10 ICAM2    
# … with 60 more rows

$beijing_cd4_c3_gnly_gs
# A tibble: 131 x 1
   gene_name
   <chr>    
 1 NKG7     
 2 GZMH     
 3 GNLY     
 4 PRF1     
 5 FGFBP2   
 6 GZMB     
 7 CCL5     
 8 TARP     
 9 CX3CR1   
10 KLRG1    
# … with 121 more rows
…
$beijing_cd4_c5_eomes_gs
# A tibble: 45 x 1
   gene_name
   <chr>    
 1 GZMK     
 2 GZMA     
 3 CST7     
 4 CCL4     
 5 CCL4L1   
 6 CD27     
 7 CCL3L3   
 8 DTHD1    
 9 F2R      
10 CD27-AS1 
# … with 35 more rows

$beijing_cd4_c6_gzma_gs
# A tibble: 98 x 1
   gene_name
   <chr>    
 1 CXCR6    
 2 HLA-DRB5 
 3 HLA-DRB1 
 4 HLA-DRB6 
 5 ALOX5AP  
 6 CAPG     
 7 LGALS3   
 8 ADAM19   
 9 JAML     
10 CXCR3    
# … with 88 more rows

$beijing_cd4_c7_cxcl13_gs
# A tibble: 458 x 1
   gene_name
   <chr>    
 1 CXCL13   
 2 SRGN     
 3 RGS1     
 4 GAPDH    
 5 CTLA4    
 6 TNFRSF18 
 7 DUSP4    
 8 RBPJ     
 9 NR3C1    
10 RNF19A   
# … with 448 more rows
…
names <- beijing_treg_source$cluster
names <- names %>%
  str_replace_all(., "-", "_") %>%
  str_to_lower()
names <- paste0("beijing_", names, "_gs") %>%
  print()

[1] "beijing_cd4_c8_foxp3_gs" "beijing_cd4_c9_ctla4_gs"

names(beijing_treg_list) <- names
beijing_treg_list

$beijing_cd4_c8_foxp3_gs
# A tibble: 189 x 1
   gene_name
   <chr>    
 1 TXNIP    
 2 GIMAP7   
 3 S1PR1    
 4 RPL13    
 5 CD52     
 6 RPS3     
 7 UBXN11   
 8 LINC00861
 9 RPS6     
10 RPS18    
# … with 179 more rows

$beijing_cd4_c9_ctla4_gs
# A tibble: 505 x 1
   gene_name
   <chr>    
 1 TNFRSF18 
 2 CCR8     
 3 CXCR6    
 4 CD7      
 5 IL1R2    
 6 CTSC     
 7 TNFRSF9  
 8 DUSP4    
 9 SH2D2A   
10 GAPDH    
# … with 495 more rows
…
$beijing_cd4_c9_ctla4_tnfrsf9_pos_gs
# A tibble: 267 x 1
   gene_name
   <chr>    
 1 TNFRSF9  
 2 IL1R2    
 3 CCR8     
 4 TNFRSF18 
 5 DNPH1    
 6 PKM      
 7 TNFRSF4  
 8 SERPINB9 
 9 ENTPD1   
10 DUSP4    
# … with 257 more rows
…
