predictor
…
Read in and format data

https://topepo.github.io/caret/data-splitting.html

combined_es <- readRDS("output/combined_es_gsva4_4cluster.rds")

clust <- pData(combined_es) %>%
  rownames_to_column(var = "sample_id") %>%
  dplyr::select(sample_id, clust) %>%
  as_tibble() %>%
  print()

# A tibble: 1,189 x 2
   sample_id  clust
   <chr>      <fct>
 1 DLBCL11667 3    
 2 DLBCL10501 1    
 3 DLBCL10954 1    
 4 DLBCL10984 4    
 5 DLBCL11206 1    
 6 DLBCL10959 1    
 7 DLBCL10985 2    
 8 DLBCL11533 1    
 9 DLBCL11519 3    
10 DLBCL10921 2    
# … with 1,179 more rows

expr_df <- t(exprs(combined_es)) %>%
  as.data.frame() %>%
  rownames_to_column(var = "sample_id") %>%
  as_tibble() %>%
  print()

# A tibble: 1,189 x 12,654
   sample_id ENSG00000000003… ENSG00000000419… ENSG00000000457…
   <chr>                <dbl>            <dbl>            <dbl>
 1 DLBCL116…            1.02              5.05             2.50
 2 DLBCL105…            2.20              6.17             2.83
 3 DLBCL109…            1.69              4.92             5.02
 4 DLBCL109…            1.71              5.53             4.98
 5 DLBCL112…            3.77              5.69             4.85
 6 DLBCL109…            1.06              6.08             4.40
 7 DLBCL109…            0.411             5.25             4.07
 8 DLBCL115…            2.57              6.33             3.56
 9 DLBCL115…            1.41              5.39             3.43
10 DLBCL109…            2.47              5.41             5.13
# … with 1,179 more rows, and 12,650 more variables:
#   ENSG00000000460.15 <dbl>, ENSG00000000938.11 <dbl>,
#   ENSG00000000971.14 <dbl>, ENSG00000001036.12 <dbl>,
#   ENSG00000001084.9 <dbl>, ENSG00000001167.13 <dbl>,
#   ENSG00000001460.16 <dbl>, ENSG00000001461.15 <dbl>,
#   ENSG00000001497.15 <dbl>, ENSG00000001561.6 <dbl>,
#   ENSG00000001617.10 <dbl>, ENSG00000001629.8 <dbl>,
#   ENSG00000001630.14 <dbl>, ENSG00000001631.13 <dbl>,
#   ENSG00000002016.15 <dbl>, ENSG00000002330.12 <dbl>,
…
