Preprocessing NCI Count Data from GDC
…
See spec(...) for full column specifications.

nci_phenotype_data

# A tibble: 481 x 67
   case_submitter_… sample case_id pdl1_status filename sample_id
   <chr>            <chr>  <chr>   <chr>       <chr>    <chr>    
 1 DLBCL11667       nci_d… 3e164d… non-amplif… b384270… 608e5a37…
 2 DLBCL10501       nci_d… 678acb… non-amplif… ab3f958… ed5c027b…
 3 DLBCL10954       nci_d… c1b07b… non-amplif… 92fbf68… e5341594…
 4 DLBCL10984       nci_d… 15b380… low_amplif… dc44d3b… d5ef7640…
 5 DLBCL11206       nci_d… 7ac79d… non-amplif… 717d067… c39bb161…
 6 DLBCL10959       nci_d… 94d33a… low_amplif… 9765c55… 2654c7f3…
 7 DLBCL10985       nci_d… fa7ae8… non-amplif… 93f0175… 0c677fef…
 8 DLBCL11533       nci_d… 18134e… non-amplif… cd23ffe… 6fb786ee…
 9 DLBCL11519       nci_d… 3fe9ec… low_amplif… 03cb176… 72f51808…
10 DLBCL10921       nci_d… b31ef3… non-amplif… bd2bf78… d0a34b13…
# … with 471 more rows, and 61 more variables: sample_submitter_id <chr>,
#   project_id <chr>, sample_type_id <chr>,
#   time_between_excision_and_freezing <chr>, oct_embedded <chr>,
#   tumor_code_id <chr>, intermediate_dimension <chr>, is_ffpe <chr>,
#   pathology_report_uuid <chr>, tumor_descriptor <chr>,
#   sample_type <chr>, distance_normal_to_tumor <chr>,
#   biospecimen_anatomic_site <chr>, state.x <chr>,
#   diagnosis_pathologically_confirmed <chr>, current_weight <chr>,
#   composition <chr>, time_between_clamping_and_freezing <chr>,
…
