sparse_clustering
…
# Get cluster assignments
memb <- cutree(sparsehc$hc, k = 4)
summary(as.factor(memb))

  1   2   3   4 
305 254 290 340 

memb_df <- enframe(memb) %>%
  select(sp_clust = value) %>%
  print()

# A tibble: 1,189 x 1
   sp_clust
      <int>
 1        1
 2        2
 3        3
 4        4
 5        2
 6        3
 7        1
 8        3
 9        2
10        1
# … with 1,179 more rows

# Add cluster assignments to phenoData
pheno_data <- pData(combined_es) %>% 
  rownames_to_column(var = "sample_id") %>%
  as_tibble() %>%
  bind_cols(memb_df) %>%
  dplyr::select(sample_id, sp_clust, everything()) %>%
  print()

# A tibble: 1,189 x 74
   sample_id sp_clust source abc_gcb_rna ipi_group os_status os_years   age
   <chr>        <int> <fct>  <fct>       <chr>         <dbl>    <dbl> <dbl>
 1 DLBCL116…        1 nci    GCB         Low               1     1.73    48
 2 DLBCL105…        2 nci    GCB         Low               0     1.85    42
 3 DLBCL109…        3 nci    ABC         <NA>              1     1.16    47
 4 DLBCL109…        4 nci    ABC         <NA>              0     0       75
 5 DLBCL112…        2 nci    Unclassifi… Intermed…         1     6.30    76
 6 DLBCL109…        3 nci    ABC         <NA>              0     0       41
 7 DLBCL109…        1 nci    ABC         <NA>              0     0       54
 8 DLBCL115…        3 nci    GCB         Intermed…         0     9.48    57
 9 DLBCL115…        2 nci    GCB         Intermed…         0     0       32
10 DLBCL109…        1 nci    ABC         Intermed…         0     0       56
# … with 1,179 more rows, and 66 more variables: gender <chr>,
#   ipi_initial <fct>, pdl1_status <chr>, ldh_abnormal <fct>,
#   extranodal_sites_2plus <fct>, ps_2plus <fct>,
#   ann_arbor_stage_3plus <chr>, ipi_high <chr>, case_id <chr>,
#   filename <chr>, project_id <chr>, days_to_last_follow_up <dbl>,
#   updated_datetime <dttm>, tumor_stage <chr>, age_at_diagnosis <dbl>,
#   tissue_or_organ_of_origin <chr>, ann_arbor_clinical_stage <chr>,
#   progression_or_recurrence <chr>, last_known_disease_status <chr>,
#   primary_diagnosis <chr>, tumor_grade <chr>, demographic.gender <chr>,
…
# use vector to filter gene sets
score_mat_filt <- score_matrix %>% 
  as.data.frame() %>%
  rownames_to_column(var = "sample_id") %>%
  as_tibble() %>%
  dplyr::select(sample_id, one_of(keep_gs)) %>%
  # add cluster assignment
  left_join(pheno_data, by = "sample_id") %>%
  dplyr::select(sample_id, sp_clust, one_of(keep_gs)) %>%
  mutate(sp_clust = as.factor(sp_clust)) %>%
  print()

# A tibble: 1,189 x 37
   sample_id sp_clust thor_dap12_data  cyt_gs thor_cd8a thor_tcell_rece…
   <chr>     <fct>              <dbl>   <dbl>     <dbl>            <dbl>
 1 DLBCL116… 1                 0.655   0.551     -0.446           0.0797
 2 DLBCL105… 2                 0.268  -0.323     -0.449          -0.373 
 3 DLBCL109… 3                -0.920  -0.918     -0.887          -0.946 
 4 DLBCL109… 4                 0.0383  0.296      0.669           0.425 
 5 DLBCL112… 2                -0.0405 -0.938     -0.202          -0.753 
 6 DLBCL109… 3                -0.990  -0.997     -0.997          -0.995 
 7 DLBCL109… 1                -0.0669  0.674     -0.448           0.441 
 8 DLBCL115… 3                -0.0697 -0.743     -0.969          -0.833 
 9 DLBCL115… 2                 0.269  -0.492     -0.303          -0.384 
10 DLBCL109… 1                -0.695  -0.0269     0.176          -0.283 
# … with 1,179 more rows, and 31 more variables:
#   thor_cd8_cd68_ratio <dbl>, mskcc_cytolyticeffector_gs <dbl>,
#   thor_g_gimap4 <dbl>, thor_cd68 <dbl>, thor_ctla4_data <dbl>,
#   thor_pd1_data <dbl>, imsig_nkcells_gs <dbl>, thor_icr_act_score <dbl>,
#   thor_pdl1_data <dbl>, mskcc_type2ifn_response_gs <dbl>,
#   thor_stat1_19272155 <dbl>, thor_icr_score <dbl>,
#   thor_tamsurr_score <dbl>, thor_trem1_data <dbl>,
#   thor_pd1_pdl1_score <dbl>, thor_g_cd3e <dbl>,
#   mskcc_tcellterminal_diff_gs <dbl>, thor_igg_19272155 <dbl>,
…
